          96 reduced
 periodic   20.492604360000001        20.492604360000001        20.492604360000001     
U         0.2500000000000000        0.2500000000000000        0.2500000000000000
U         0.2500000000000000        0.0000000000000000        0.0000000000000000
U         0.0000000000000000        0.0000000000000000        0.2500000000000000
U         0.0000000000000000        0.2500000000000000        0.0000000000000000
O         0.3750000000000000        0.1250000000000000        0.3750000000000000
O         0.1250000000000000        0.1250000000000000        0.1250000000000000
O         0.3750000000000000        0.3750000000000000        0.1250000000000000
O         0.3750000000000000        0.1250000000000000        0.1250000000000000
O         0.3750000000000000        0.3750000000000000        0.3750000000000000
O         0.1250000000000000        0.3750000000000000        0.1250000000000000
O         0.1250000000000000        0.1250000000000000        0.3750000000000000
O         0.1250000000000000        0.3750000000000000        0.3750000000000000
U         0.7500000000000000        0.2500000000000000        0.2500000000000000
U         0.7500000000000000        0.0000000000000000        0.0000000000000000
U         0.5000000000000000        0.0000000000000000        0.2500000000000000
U         0.5000000000000000        0.2500000000000000        0.0000000000000000
O         0.8750000000000000        0.1250000000000000        0.3750000000000000
O         0.6250000000000000        0.1250000000000000        0.1250000000000000
O         0.8750000000000000        0.3750000000000000        0.1250000000000000
O         0.8750000000000000        0.1250000000000000        0.1250000000000000
O         0.8750000000000000        0.3750000000000000        0.3750000000000000
O         0.6250000000000000        0.3750000000000000        0.1250000000000000
O         0.6250000000000000        0.1250000000000000        0.3750000000000000
O         0.6250000000000000        0.3750000000000000        0.3750000000000000
U         0.2500000000000000        0.7500000000000000        0.2500000000000000
U         0.2500000000000000        0.5000000000000000        0.0000000000000000
U         0.0000000000000000        0.5000000000000000        0.2500000000000000
U         0.0000000000000000        0.7500000000000000        0.0000000000000000
O         0.3750000000000000        0.6250000000000000        0.3750000000000000
O         0.1250000000000000        0.6250000000000000        0.1250000000000000
O         0.3750000000000000        0.8750000000000000        0.1250000000000000
O         0.3750000000000000        0.6250000000000000        0.1250000000000000
O         0.3750000000000000        0.8750000000000000        0.3750000000000000
O         0.1250000000000000        0.8750000000000000        0.1250000000000000
O         0.1250000000000000        0.6250000000000000        0.3750000000000000
O         0.1250000000000000        0.8750000000000000        0.3750000000000000
U         0.7500000000000000        0.7500000000000000        0.2500000000000000
U         0.7500000000000000        0.5000000000000000        0.0000000000000000
U         0.5000000000000000        0.5000000000000000        0.2500000000000000
U         0.5000000000000000        0.7500000000000000        0.0000000000000000
O         0.8750000000000000        0.6250000000000000        0.3750000000000000
O         0.6250000000000000        0.6250000000000000        0.1250000000000000
O         0.8750000000000000        0.8750000000000000        0.1250000000000000
O         0.8750000000000000        0.6250000000000000        0.1250000000000000
O         0.8750000000000000        0.8750000000000000        0.3750000000000000
O         0.6250000000000000        0.8750000000000000        0.1250000000000000
O         0.6250000000000000        0.6250000000000000        0.3750000000000000
O         0.6250000000000000        0.8750000000000000        0.3750000000000000
U         0.2500000000000000        0.2500000000000000        0.7500000000000000
U         0.2500000000000000        0.0000000000000000        0.5000000000000000
U         0.0000000000000000        0.0000000000000000        0.7500000000000000
U         0.0000000000000000        0.2500000000000000        0.5000000000000000
O         0.3750000000000000        0.1250000000000000        0.8750000000000000
O         0.1250000000000000        0.1250000000000000        0.6250000000000000
O         0.3750000000000000        0.3750000000000000        0.6250000000000000
O         0.3750000000000000        0.1250000000000000        0.6250000000000000
O         0.3750000000000000        0.3750000000000000        0.8750000000000000
O         0.1250000000000000        0.3750000000000000        0.6250000000000000
O         0.1250000000000000        0.1250000000000000        0.8750000000000000
O         0.1250000000000000        0.3750000000000000        0.8750000000000000
U         0.7500000000000000        0.2500000000000000        0.7500000000000000
U         0.7500000000000000        0.0000000000000000        0.5000000000000000
U         0.5000000000000000        0.0000000000000000        0.7500000000000000
U         0.5000000000000000        0.2500000000000000        0.5000000000000000
O         0.8750000000000000        0.1250000000000000        0.8750000000000000
O         0.6250000000000000        0.1250000000000000        0.6250000000000000
O         0.8750000000000000        0.3750000000000000        0.6250000000000000
O         0.8750000000000000        0.1250000000000000        0.6250000000000000
O         0.8750000000000000        0.3750000000000000        0.8750000000000000
O         0.6250000000000000        0.3750000000000000        0.6250000000000000
O         0.6250000000000000        0.1250000000000000        0.8750000000000000
O         0.6250000000000000        0.3750000000000000        0.8750000000000000
U         0.2500000000000000        0.7500000000000000        0.7500000000000000
U         0.2500000000000000        0.5000000000000000        0.5000000000000000
U         0.0000000000000000        0.5000000000000000        0.7500000000000000
U         0.0000000000000000        0.7500000000000000        0.5000000000000000
O         0.3750000000000000        0.6250000000000000        0.8750000000000000
O         0.1250000000000000        0.6250000000000000        0.6250000000000000
O         0.3750000000000000        0.8750000000000000        0.6250000000000000
O         0.3750000000000000        0.6250000000000000        0.6250000000000000
O         0.3750000000000000        0.8750000000000000        0.8750000000000000
O         0.1250000000000000        0.8750000000000000        0.6250000000000000
O         0.1250000000000000        0.6250000000000000        0.8750000000000000
O         0.1250000000000000        0.8750000000000000        0.8750000000000000
U         0.7500000000000000        0.7500000000000000        0.7500000000000000
U         0.7500000000000000        0.5000000000000000        0.5000000000000000
U         0.5000000000000000        0.5000000000000000        0.7500000000000000
U         0.5000000000000000        0.7500000000000000        0.5000000000000000
O         0.8750000000000000        0.6250000000000000        0.8750000000000000
O         0.6250000000000000        0.6250000000000000        0.6250000000000000
O         0.8750000000000000        0.8750000000000000        0.6250000000000000
O         0.8750000000000000        0.6250000000000000        0.6250000000000000
O         0.8750000000000000        0.8750000000000000        0.8750000000000000
O         0.6250000000000000        0.8750000000000000        0.6250000000000000
O         0.6250000000000000        0.6250000000000000        0.8750000000000000
O         0.6250000000000000        0.8750000000000000        0.8750000000000000
