   324  atomicd0  -8.89620443368901397E+03 (Ha)  Geometry + metaData forces
periodic  3.07389065399999986E+01  3.07389065399999986E+01  3.07389065399999986E+01  {reduced: Yes, format: xyz, source: uo2_3.xyz}
 U  5.12315109000000124E+00  5.12315109000000124E+00  5.12315109000000124E+00
 U  5.12315109000000124E+00  0.00000000000000000E+00  0.00000000000000000E+00
 U  0.00000000000000000E+00  0.00000000000000000E+00  5.12315109000000124E+00
 U  0.00000000000000000E+00  5.12315109000000124E+00  0.00000000000000000E+00
 O  7.68472663499999964E+00  2.56157554499999884E+00  7.68472663499999964E+00
 O  2.56157554499999884E+00  2.56157554499999884E+00  2.56157554499999884E+00
 O  7.68472663499999964E+00  7.68472663499999964E+00  2.56157554499999884E+00
 O  7.68472663499999964E+00  2.56157554499999884E+00  2.56157554499999884E+00
 O  7.68472663499999964E+00  7.68472663499999964E+00  7.68472663499999964E+00
 O  2.56157554499999884E+00  7.68472663499999964E+00  2.56157554499999884E+00
 O  2.56157554499999884E+00  2.56157554499999884E+00  7.68472663499999964E+00
 O  2.56157554499999884E+00  7.68472663499999964E+00  7.68472663499999964E+00
 U  1.53694532699999993E+01  5.12315109000000124E+00  5.12315109000000124E+00
 U  1.53694532699999993E+01  0.00000000000000000E+00  0.00000000000000000E+00
 U  1.02463021799999989E+01  0.00000000000000000E+00  5.12315109000000124E+00
 U  1.02463021799999989E+01  5.12315109000000124E+00  0.00000000000000000E+00
 O  1.79310288149999977E+01  2.56157554499999884E+00  7.68472663499999964E+00
 O  1.28078777249999973E+01  2.56157554499999884E+00  2.56157554499999884E+00
 O  1.79310288149999977E+01  7.68472663499999964E+00  2.56157554499999884E+00
 O  1.79310288149999977E+01  2.56157554499999884E+00  2.56157554499999884E+00
 O  1.79310288149999977E+01  7.68472663499999964E+00  7.68472663499999964E+00
 O  1.28078777249999973E+01  7.68472663499999964E+00  2.56157554499999884E+00
 O  1.28078777249999973E+01  2.56157554499999884E+00  7.68472663499999964E+00
 O  1.28078777249999973E+01  7.68472663499999964E+00  7.68472663499999964E+00
 U  2.56157554499999982E+01  5.12315109000000124E+00  5.12315109000000124E+00
 U  2.56157554499999982E+01  0.00000000000000000E+00  0.00000000000000000E+00
 U  2.04926043599999979E+01  0.00000000000000000E+00  5.12315109000000124E+00
 U  2.04926043599999979E+01  5.12315109000000124E+00  0.00000000000000000E+00
 O  2.81773309949999984E+01  2.56157554499999884E+00  7.68472663499999964E+00
 O  2.30541799049999980E+01  2.56157554499999884E+00  2.56157554499999884E+00
 O  2.81773309949999984E+01  7.68472663499999964E+00  2.56157554499999884E+00
 O  2.81773309949999984E+01  2.56157554499999884E+00  2.56157554499999884E+00
 O  2.81773309949999984E+01  7.68472663499999964E+00  7.68472663499999964E+00
 O  2.30541799049999980E+01  7.68472663499999964E+00  2.56157554499999884E+00
 O  2.30541799049999980E+01  2.56157554499999884E+00  7.68472663499999964E+00
 O  2.30541799049999980E+01  7.68472663499999964E+00  7.68472663499999964E+00
 U  5.12315109000000124E+00  1.53694532699999993E+01  5.12315109000000124E+00
 U  5.12315109000000124E+00  1.02463021799999989E+01  0.00000000000000000E+00
 U  0.00000000000000000E+00  1.02463021799999989E+01  5.12315109000000124E+00
 U  0.00000000000000000E+00  1.53694532699999993E+01  0.00000000000000000E+00
 O  7.68472663499999964E+00  1.28078777249999973E+01  7.68472663499999964E+00
 O  2.56157554499999884E+00  1.28078777249999973E+01  2.56157554499999884E+00
 O  7.68472663499999964E+00  1.79310288149999977E+01  2.56157554499999884E+00
 O  7.68472663499999964E+00  1.28078777249999973E+01  2.56157554499999884E+00
 O  7.68472663499999964E+00  1.79310288149999977E+01  7.68472663499999964E+00
 O  2.56157554499999884E+00  1.79310288149999977E+01  2.56157554499999884E+00
 O  2.56157554499999884E+00  1.28078777249999973E+01  7.68472663499999964E+00
 O  2.56157554499999884E+00  1.79310288149999977E+01  7.68472663499999964E+00
 U  1.53694532699999993E+01  1.53694532699999993E+01  5.12315109000000124E+00
 U  1.53694532699999993E+01  1.02463021799999989E+01  0.00000000000000000E+00
 U  1.02463021799999989E+01  1.02463021799999989E+01  5.12315109000000124E+00
 U  1.02463021799999989E+01  1.53694532699999993E+01  0.00000000000000000E+00
 O  1.79310288149999977E+01  1.28078777249999973E+01  7.68472663499999964E+00
 O  1.28078777249999973E+01  1.28078777249999973E+01  2.56157554499999884E+00
 O  1.79310288149999977E+01  1.79310288149999977E+01  2.56157554499999884E+00
 O  1.79310288149999977E+01  1.28078777249999973E+01  2.56157554499999884E+00
 O  1.79310288149999977E+01  1.79310288149999977E+01  7.68472663499999964E+00
 O  1.28078777249999973E+01  1.79310288149999977E+01  2.56157554499999884E+00
 O  1.28078777249999973E+01  1.28078777249999973E+01  7.68472663499999964E+00
 O  1.28078777249999973E+01  1.79310288149999977E+01  7.68472663499999964E+00
 U  2.56157554499999982E+01  1.53694532699999993E+01  5.12315109000000124E+00
 U  2.56157554499999982E+01  1.02463021799999989E+01  0.00000000000000000E+00
 U  2.04926043599999979E+01  1.02463021799999989E+01  5.12315109000000124E+00
 U  2.04926043599999979E+01  1.53694532699999993E+01  0.00000000000000000E+00
 O  2.81773309949999984E+01  1.28078777249999973E+01  7.68472663499999964E+00
 O  2.30541799049999980E+01  1.28078777249999973E+01  2.56157554499999884E+00
 O  2.81773309949999984E+01  1.79310288149999977E+01  2.56157554499999884E+00
 O  2.81773309949999984E+01  1.28078777249999973E+01  2.56157554499999884E+00
 O  2.81773309949999984E+01  1.79310288149999977E+01  7.68472663499999964E+00
 O  2.30541799049999980E+01  1.79310288149999977E+01  2.56157554499999884E+00
 O  2.30541799049999980E+01  1.28078777249999973E+01  7.68472663499999964E+00
 O  2.30541799049999980E+01  1.79310288149999977E+01  7.68472663499999964E+00
 U  5.12315109000000124E+00  2.56157554499999982E+01  5.12315109000000124E+00
 U  5.12315109000000124E+00  2.04926043599999979E+01  0.00000000000000000E+00
 U  0.00000000000000000E+00  2.04926043599999979E+01  5.12315109000000124E+00
 U  0.00000000000000000E+00  2.56157554499999982E+01  0.00000000000000000E+00
 O  7.68472663499999964E+00  2.30541799049999980E+01  7.68472663499999964E+00
 O  2.56157554499999884E+00  2.30541799049999980E+01  2.56157554499999884E+00
 O  7.68472663499999964E+00  2.81773309949999984E+01  2.56157554499999884E+00
 O  7.68472663499999964E+00  2.30541799049999980E+01  2.56157554499999884E+00
 O  7.68472663499999964E+00  2.81773309949999984E+01  7.68472663499999964E+00
 O  2.56157554499999884E+00  2.81773309949999984E+01  2.56157554499999884E+00
 O  2.56157554499999884E+00  2.30541799049999980E+01  7.68472663499999964E+00
 O  2.56157554499999884E+00  2.81773309949999984E+01  7.68472663499999964E+00
 U  1.53694532699999993E+01  2.56157554499999982E+01  5.12315109000000124E+00
 U  1.53694532699999993E+01  2.04926043599999979E+01  0.00000000000000000E+00
 U  1.02463021799999989E+01  2.04926043599999979E+01  5.12315109000000124E+00
 U  1.02463021799999989E+01  2.56157554499999982E+01  0.00000000000000000E+00
 O  1.79310288149999977E+01  2.30541799049999980E+01  7.68472663499999964E+00
 O  1.28078777249999973E+01  2.30541799049999980E+01  2.56157554499999884E+00
 O  1.79310288149999977E+01  2.81773309949999984E+01  2.56157554499999884E+00
 O  1.79310288149999977E+01  2.30541799049999980E+01  2.56157554499999884E+00
 O  1.79310288149999977E+01  2.81773309949999984E+01  7.68472663499999964E+00
 O  1.28078777249999973E+01  2.81773309949999984E+01  2.56157554499999884E+00
 O  1.28078777249999973E+01  2.30541799049999980E+01  7.68472663499999964E+00
 O  1.28078777249999973E+01  2.81773309949999984E+01  7.68472663499999964E+00
 U  2.56157554499999982E+01  2.56157554499999982E+01  5.12315109000000124E+00
 U  2.56157554499999982E+01  2.04926043599999979E+01  0.00000000000000000E+00
 U  2.04926043599999979E+01  2.04926043599999979E+01  5.12315109000000124E+00
 U  2.04926043599999979E+01  2.56157554499999982E+01  0.00000000000000000E+00
 O  2.81773309949999984E+01  2.30541799049999980E+01  7.68472663499999964E+00
 O  2.30541799049999980E+01  2.30541799049999980E+01  2.56157554499999884E+00
 O  2.81773309949999984E+01  2.81773309949999984E+01  2.56157554499999884E+00
 O  2.81773309949999984E+01  2.30541799049999980E+01  2.56157554499999884E+00
 O  2.81773309949999984E+01  2.81773309949999984E+01  7.68472663499999964E+00
 O  2.30541799049999980E+01  2.81773309949999984E+01  2.56157554499999884E+00
 O  2.30541799049999980E+01  2.30541799049999980E+01  7.68472663499999964E+00
 O  2.30541799049999980E+01  2.81773309949999984E+01  7.68472663499999964E+00
 U  5.12315109000000124E+00  5.12315109000000124E+00  1.53694532699999993E+01
 U  5.12315109000000124E+00  0.00000000000000000E+00  1.02463021799999989E+01
 U  0.00000000000000000E+00  0.00000000000000000E+00  1.53694532699999993E+01
 U  0.00000000000000000E+00  5.12315109000000124E+00  1.02463021799999989E+01
 O  7.68472663499999964E+00  2.56157554499999884E+00  1.79310288149999977E+01
 O  2.56157554499999884E+00  2.56157554499999884E+00  1.28078777249999973E+01
 O  7.68472663499999964E+00  7.68472663499999964E+00  1.28078777249999973E+01
 O  7.68472663499999964E+00  2.56157554499999884E+00  1.28078777249999973E+01
 O  7.68472663499999964E+00  7.68472663499999964E+00  1.79310288149999977E+01
 O  2.56157554499999884E+00  7.68472663499999964E+00  1.28078777249999973E+01
 O  2.56157554499999884E+00  2.56157554499999884E+00  1.79310288149999977E+01
 O  2.56157554499999884E+00  7.68472663499999964E+00  1.79310288149999977E+01
 U  1.53694532699999993E+01  5.12315109000000124E+00  1.53694532699999993E+01
 U  1.53694532699999993E+01  0.00000000000000000E+00  1.02463021799999989E+01
 U  1.02463021799999989E+01  0.00000000000000000E+00  1.53694532699999993E+01
 U  1.02463021799999989E+01  5.12315109000000124E+00  1.02463021799999989E+01
 O  1.79310288149999977E+01  2.56157554499999884E+00  1.79310288149999977E+01
 O  1.28078777249999973E+01  2.56157554499999884E+00  1.28078777249999973E+01
 O  1.79310288149999977E+01  7.68472663499999964E+00  1.28078777249999973E+01
 O  1.79310288149999977E+01  2.56157554499999884E+00  1.28078777249999973E+01
 O  1.79310288149999977E+01  7.68472663499999964E+00  1.79310288149999977E+01
 O  1.28078777249999973E+01  7.68472663499999964E+00  1.28078777249999973E+01
 O  1.28078777249999973E+01  2.56157554499999884E+00  1.79310288149999977E+01
 O  1.28078777249999973E+01  7.68472663499999964E+00  1.79310288149999977E+01
 U  2.56157554499999982E+01  5.12315109000000124E+00  1.53694532699999993E+01
 U  2.56157554499999982E+01  0.00000000000000000E+00  1.02463021799999989E+01
 U  2.04926043599999979E+01  0.00000000000000000E+00  1.53694532699999993E+01
 U  2.04926043599999979E+01  5.12315109000000124E+00  1.02463021799999989E+01
 O  2.81773309949999984E+01  2.56157554499999884E+00  1.79310288149999977E+01
 O  2.30541799049999980E+01  2.56157554499999884E+00  1.28078777249999973E+01
 O  2.81773309949999984E+01  7.68472663499999964E+00  1.28078777249999973E+01
 O  2.81773309949999984E+01  2.56157554499999884E+00  1.28078777249999973E+01
 O  2.81773309949999984E+01  7.68472663499999964E+00  1.79310288149999977E+01
 O  2.30541799049999980E+01  7.68472663499999964E+00  1.28078777249999973E+01
 O  2.30541799049999980E+01  2.56157554499999884E+00  1.79310288149999977E+01
 O  2.30541799049999980E+01  7.68472663499999964E+00  1.79310288149999977E+01
 U  5.12315109000000124E+00  1.53694532699999993E+01  1.53694532699999993E+01
 U  5.12315109000000124E+00  1.02463021799999989E+01  1.02463021799999989E+01
 U  0.00000000000000000E+00  1.02463021799999989E+01  1.53694532699999993E+01
 U  0.00000000000000000E+00  1.53694532699999993E+01  1.02463021799999989E+01
 O  7.68472663499999964E+00  1.28078777249999973E+01  1.79310288149999977E+01
 O  2.56157554499999884E+00  1.28078777249999973E+01  1.28078777249999973E+01
 O  7.68472663499999964E+00  1.79310288149999977E+01  1.28078777249999973E+01
 O  7.68472663499999964E+00  1.28078777249999973E+01  1.28078777249999973E+01
 O  7.68472663499999964E+00  1.79310288149999977E+01  1.79310288149999977E+01
 O  2.56157554499999884E+00  1.79310288149999977E+01  1.28078777249999973E+01
 O  2.56157554499999884E+00  1.28078777249999973E+01  1.79310288149999977E+01
 O  2.56157554499999884E+00  1.79310288149999977E+01  1.79310288149999977E+01
 U  1.53694532699999993E+01  1.53694532699999993E+01  1.53694532699999993E+01
 U  1.53694532699999993E+01  1.02463021799999989E+01  1.02463021799999989E+01
 U  1.02463021799999989E+01  1.02463021799999989E+01  1.53694532699999993E+01
 U  1.02463021799999989E+01  1.53694532699999993E+01  1.02463021799999989E+01
 O  1.79310288149999977E+01  1.28078777249999973E+01  1.79310288149999977E+01
 O  1.28078777249999973E+01  1.28078777249999973E+01  1.28078777249999973E+01
 O  1.79310288149999977E+01  1.79310288149999977E+01  1.28078777249999973E+01
 O  1.79310288149999977E+01  1.28078777249999973E+01  1.28078777249999973E+01
 O  1.79310288149999977E+01  1.79310288149999977E+01  1.79310288149999977E+01
 O  1.28078777249999973E+01  1.79310288149999977E+01  1.28078777249999973E+01
 O  1.28078777249999973E+01  1.28078777249999973E+01  1.79310288149999977E+01
 O  1.28078777249999973E+01  1.79310288149999977E+01  1.79310288149999977E+01
 U  2.56157554499999982E+01  1.53694532699999993E+01  1.53694532699999993E+01
 U  2.56157554499999982E+01  1.02463021799999989E+01  1.02463021799999989E+01
 U  2.04926043599999979E+01  1.02463021799999989E+01  1.53694532699999993E+01
 U  2.04926043599999979E+01  1.53694532699999993E+01  1.02463021799999989E+01
 O  2.81773309949999984E+01  1.28078777249999973E+01  1.79310288149999977E+01
 O  2.30541799049999980E+01  1.28078777249999973E+01  1.28078777249999973E+01
 O  2.81773309949999984E+01  1.79310288149999977E+01  1.28078777249999973E+01
 O  2.81773309949999984E+01  1.28078777249999973E+01  1.28078777249999973E+01
 O  2.81773309949999984E+01  1.79310288149999977E+01  1.79310288149999977E+01
 O  2.30541799049999980E+01  1.79310288149999977E+01  1.28078777249999973E+01
 O  2.30541799049999980E+01  1.28078777249999973E+01  1.79310288149999977E+01
 O  2.30541799049999980E+01  1.79310288149999977E+01  1.79310288149999977E+01
 U  5.12315109000000124E+00  2.56157554499999982E+01  1.53694532699999993E+01
 U  5.12315109000000124E+00  2.04926043599999979E+01  1.02463021799999989E+01
 U  0.00000000000000000E+00  2.04926043599999979E+01  1.53694532699999993E+01
 U  0.00000000000000000E+00  2.56157554499999982E+01  1.02463021799999989E+01
 O  7.68472663499999964E+00  2.30541799049999980E+01  1.79310288149999977E+01
 O  2.56157554499999884E+00  2.30541799049999980E+01  1.28078777249999973E+01
 O  7.68472663499999964E+00  2.81773309949999984E+01  1.28078777249999973E+01
 O  7.68472663499999964E+00  2.30541799049999980E+01  1.28078777249999973E+01
 O  7.68472663499999964E+00  2.81773309949999984E+01  1.79310288149999977E+01
 O  2.56157554499999884E+00  2.81773309949999984E+01  1.28078777249999973E+01
 O  2.56157554499999884E+00  2.30541799049999980E+01  1.79310288149999977E+01
 O  2.56157554499999884E+00  2.81773309949999984E+01  1.79310288149999977E+01
 U  1.53694532699999993E+01  2.56157554499999982E+01  1.53694532699999993E+01
 U  1.53694532699999993E+01  2.04926043599999979E+01  1.02463021799999989E+01
 U  1.02463021799999989E+01  2.04926043599999979E+01  1.53694532699999993E+01
 U  1.02463021799999989E+01  2.56157554499999982E+01  1.02463021799999989E+01
 O  1.79310288149999977E+01  2.30541799049999980E+01  1.79310288149999977E+01
 O  1.28078777249999973E+01  2.30541799049999980E+01  1.28078777249999973E+01
 O  1.79310288149999977E+01  2.81773309949999984E+01  1.28078777249999973E+01
 O  1.79310288149999977E+01  2.30541799049999980E+01  1.28078777249999973E+01
 O  1.79310288149999977E+01  2.81773309949999984E+01  1.79310288149999977E+01
 O  1.28078777249999973E+01  2.81773309949999984E+01  1.28078777249999973E+01
 O  1.28078777249999973E+01  2.30541799049999980E+01  1.79310288149999977E+01
 O  1.28078777249999973E+01  2.81773309949999984E+01  1.79310288149999977E+01
 U  2.56157554499999982E+01  2.56157554499999982E+01  1.53694532699999993E+01
 U  2.56157554499999982E+01  2.04926043599999979E+01  1.02463021799999989E+01
 U  2.04926043599999979E+01  2.04926043599999979E+01  1.53694532699999993E+01
 U  2.04926043599999979E+01  2.56157554499999982E+01  1.02463021799999989E+01
 O  2.81773309949999984E+01  2.30541799049999980E+01  1.79310288149999977E+01
 O  2.30541799049999980E+01  2.30541799049999980E+01  1.28078777249999973E+01
 O  2.81773309949999984E+01  2.81773309949999984E+01  1.28078777249999973E+01
 O  2.81773309949999984E+01  2.30541799049999980E+01  1.28078777249999973E+01
 O  2.81773309949999984E+01  2.81773309949999984E+01  1.79310288149999977E+01
 O  2.30541799049999980E+01  2.81773309949999984E+01  1.28078777249999973E+01
 O  2.30541799049999980E+01  2.30541799049999980E+01  1.79310288149999977E+01
 O  2.30541799049999980E+01  2.81773309949999984E+01  1.79310288149999977E+01
 U  5.12315109000000124E+00  5.12315109000000124E+00  2.56157554499999982E+01
 U  5.12315109000000124E+00  0.00000000000000000E+00  2.04926043599999979E+01
 U  0.00000000000000000E+00  0.00000000000000000E+00  2.56157554499999982E+01
 U  0.00000000000000000E+00  5.12315109000000124E+00  2.04926043599999979E+01
 O  7.68472663499999964E+00  2.56157554499999884E+00  2.81773309949999984E+01
 O  2.56157554499999884E+00  2.56157554499999884E+00  2.30541799049999980E+01
 O  7.68472663499999964E+00  7.68472663499999964E+00  2.30541799049999980E+01
 O  7.68472663499999964E+00  2.56157554499999884E+00  2.30541799049999980E+01
 O  7.68472663499999964E+00  7.68472663499999964E+00  2.81773309949999984E+01
 O  2.56157554499999884E+00  7.68472663499999964E+00  2.30541799049999980E+01
 O  2.56157554499999884E+00  2.56157554499999884E+00  2.81773309949999984E+01
 O  2.56157554499999884E+00  7.68472663499999964E+00  2.81773309949999984E+01
 U  1.53694532699999993E+01  5.12315109000000124E+00  2.56157554499999982E+01
 U  1.53694532699999993E+01  0.00000000000000000E+00  2.04926043599999979E+01
 U  1.02463021799999989E+01  0.00000000000000000E+00  2.56157554499999982E+01
 U  1.02463021799999989E+01  5.12315109000000124E+00  2.04926043599999979E+01
 O  1.79310288149999977E+01  2.56157554499999884E+00  2.81773309949999984E+01
 O  1.28078777249999973E+01  2.56157554499999884E+00  2.30541799049999980E+01
 O  1.79310288149999977E+01  7.68472663499999964E+00  2.30541799049999980E+01
 O  1.79310288149999977E+01  2.56157554499999884E+00  2.30541799049999980E+01
 O  1.79310288149999977E+01  7.68472663499999964E+00  2.81773309949999984E+01
 O  1.28078777249999973E+01  7.68472663499999964E+00  2.30541799049999980E+01
 O  1.28078777249999973E+01  2.56157554499999884E+00  2.81773309949999984E+01
 O  1.28078777249999973E+01  7.68472663499999964E+00  2.81773309949999984E+01
 U  2.56157554499999982E+01  5.12315109000000124E+00  2.56157554499999982E+01
 U  2.56157554499999982E+01  0.00000000000000000E+00  2.04926043599999979E+01
 U  2.04926043599999979E+01  0.00000000000000000E+00  2.56157554499999982E+01
 U  2.04926043599999979E+01  5.12315109000000124E+00  2.04926043599999979E+01
 O  2.81773309949999984E+01  2.56157554499999884E+00  2.81773309949999984E+01
 O  2.30541799049999980E+01  2.56157554499999884E+00  2.30541799049999980E+01
 O  2.81773309949999984E+01  7.68472663499999964E+00  2.30541799049999980E+01
 O  2.81773309949999984E+01  2.56157554499999884E+00  2.30541799049999980E+01
 O  2.81773309949999984E+01  7.68472663499999964E+00  2.81773309949999984E+01
 O  2.30541799049999980E+01  7.68472663499999964E+00  2.30541799049999980E+01
 O  2.30541799049999980E+01  2.56157554499999884E+00  2.81773309949999984E+01
 O  2.30541799049999980E+01  7.68472663499999964E+00  2.81773309949999984E+01
 U  5.12315109000000124E+00  1.53694532699999993E+01  2.56157554499999982E+01
 U  5.12315109000000124E+00  1.02463021799999989E+01  2.04926043599999979E+01
 U  0.00000000000000000E+00  1.02463021799999989E+01  2.56157554499999982E+01
 U  0.00000000000000000E+00  1.53694532699999993E+01  2.04926043599999979E+01
 O  7.68472663499999964E+00  1.28078777249999973E+01  2.81773309949999984E+01
 O  2.56157554499999884E+00  1.28078777249999973E+01  2.30541799049999980E+01
 O  7.68472663499999964E+00  1.79310288149999977E+01  2.30541799049999980E+01
 O  7.68472663499999964E+00  1.28078777249999973E+01  2.30541799049999980E+01
 O  7.68472663499999964E+00  1.79310288149999977E+01  2.81773309949999984E+01
 O  2.56157554499999884E+00  1.79310288149999977E+01  2.30541799049999980E+01
 O  2.56157554499999884E+00  1.28078777249999973E+01  2.81773309949999984E+01
 O  2.56157554499999884E+00  1.79310288149999977E+01  2.81773309949999984E+01
 U  1.53694532699999993E+01  1.53694532699999993E+01  2.56157554499999982E+01
 U  1.53694532699999993E+01  1.02463021799999989E+01  2.04926043599999979E+01
 U  1.02463021799999989E+01  1.02463021799999989E+01  2.56157554499999982E+01
 U  1.02463021799999989E+01  1.53694532699999993E+01  2.04926043599999979E+01
 O  1.79310288149999977E+01  1.28078777249999973E+01  2.81773309949999984E+01
 O  1.28078777249999973E+01  1.28078777249999973E+01  2.30541799049999980E+01
 O  1.79310288149999977E+01  1.79310288149999977E+01  2.30541799049999980E+01
 O  1.79310288149999977E+01  1.28078777249999973E+01  2.30541799049999980E+01
 O  1.79310288149999977E+01  1.79310288149999977E+01  2.81773309949999984E+01
 O  1.28078777249999973E+01  1.79310288149999977E+01  2.30541799049999980E+01
 O  1.28078777249999973E+01  1.28078777249999973E+01  2.81773309949999984E+01
 O  1.28078777249999973E+01  1.79310288149999977E+01  2.81773309949999984E+01
 U  2.56157554499999982E+01  1.53694532699999993E+01  2.56157554499999982E+01
 U  2.56157554499999982E+01  1.02463021799999989E+01  2.04926043599999979E+01
 U  2.04926043599999979E+01  1.02463021799999989E+01  2.56157554499999982E+01
 U  2.04926043599999979E+01  1.53694532699999993E+01  2.04926043599999979E+01
 O  2.81773309949999984E+01  1.28078777249999973E+01  2.81773309949999984E+01
 O  2.30541799049999980E+01  1.28078777249999973E+01  2.30541799049999980E+01
 O  2.81773309949999984E+01  1.79310288149999977E+01  2.30541799049999980E+01
 O  2.81773309949999984E+01  1.28078777249999973E+01  2.30541799049999980E+01
 O  2.81773309949999984E+01  1.79310288149999977E+01  2.81773309949999984E+01
 O  2.30541799049999980E+01  1.79310288149999977E+01  2.30541799049999980E+01
 O  2.30541799049999980E+01  1.28078777249999973E+01  2.81773309949999984E+01
 O  2.30541799049999980E+01  1.79310288149999977E+01  2.81773309949999984E+01
 U  5.12315109000000124E+00  2.56157554499999982E+01  2.56157554499999982E+01
 U  5.12315109000000124E+00  2.04926043599999979E+01  2.04926043599999979E+01
 U  0.00000000000000000E+00  2.04926043599999979E+01  2.56157554499999982E+01
 U  0.00000000000000000E+00  2.56157554499999982E+01  2.04926043599999979E+01
 O  7.68472663499999964E+00  2.30541799049999980E+01  2.81773309949999984E+01
 O  2.56157554499999884E+00  2.30541799049999980E+01  2.30541799049999980E+01
 O  7.68472663499999964E+00  2.81773309949999984E+01  2.30541799049999980E+01
 O  7.68472663499999964E+00  2.30541799049999980E+01  2.30541799049999980E+01
 O  7.68472663499999964E+00  2.81773309949999984E+01  2.81773309949999984E+01
 O  2.56157554499999884E+00  2.81773309949999984E+01  2.30541799049999980E+01
 O  2.56157554499999884E+00  2.30541799049999980E+01  2.81773309949999984E+01
 O  2.56157554499999884E+00  2.81773309949999984E+01  2.81773309949999984E+01
 U  1.53694532699999993E+01  2.56157554499999982E+01  2.56157554499999982E+01
 U  1.53694532699999993E+01  2.04926043599999979E+01  2.04926043599999979E+01
 U  1.02463021799999989E+01  2.04926043599999979E+01  2.56157554499999982E+01
 U  1.02463021799999989E+01  2.56157554499999982E+01  2.04926043599999979E+01
 O  1.79310288149999977E+01  2.30541799049999980E+01  2.81773309949999984E+01
 O  1.28078777249999973E+01  2.30541799049999980E+01  2.30541799049999980E+01
 O  1.79310288149999977E+01  2.81773309949999984E+01  2.30541799049999980E+01
 O  1.79310288149999977E+01  2.30541799049999980E+01  2.30541799049999980E+01
 O  1.79310288149999977E+01  2.81773309949999984E+01  2.81773309949999984E+01
 O  1.28078777249999973E+01  2.81773309949999984E+01  2.30541799049999980E+01
 O  1.28078777249999973E+01  2.30541799049999980E+01  2.81773309949999984E+01
 O  1.28078777249999973E+01  2.81773309949999984E+01  2.81773309949999984E+01
 U  2.56157554499999982E+01  2.56157554499999982E+01  2.56157554499999982E+01
 U  2.56157554499999982E+01  2.04926043599999979E+01  2.04926043599999979E+01
 U  2.04926043599999979E+01  2.04926043599999979E+01  2.56157554499999982E+01
 U  2.04926043599999979E+01  2.56157554499999982E+01  2.04926043599999979E+01
 O  2.81773309949999984E+01  2.30541799049999980E+01  2.81773309949999984E+01
 O  2.30541799049999980E+01  2.30541799049999980E+01  2.30541799049999980E+01
 O  2.81773309949999984E+01  2.81773309949999984E+01  2.30541799049999980E+01
 O  2.81773309949999984E+01  2.30541799049999980E+01  2.30541799049999980E+01
 O  2.81773309949999984E+01  2.81773309949999984E+01  2.81773309949999984E+01
 O  2.30541799049999980E+01  2.81773309949999984E+01  2.30541799049999980E+01
 O  2.30541799049999980E+01  2.30541799049999980E+01  2.81773309949999984E+01
 O  2.30541799049999980E+01  2.81773309949999984E+01  2.81773309949999984E+01
 forces
U       4.82164196332420059E-21  2.12554049883208540E-20 -5.22344546026788485E-21
U       1.09290551168681887E-20  1.43845651905838670E-20 -5.17121100566520584E-20
U      -1.26467650663024362E-20 -7.95570923948493241E-21 -1.89651250557418574E-20
U       1.94673794269214627E-20 -5.60515878236438430E-21 -4.59663200503573879E-20
O      -2.43894722644815859E-20 -1.68757468716347028E-20 -1.85633215587981731E-20
O      -4.17875636821430758E-21 -1.36613188960852359E-21 -1.70766486201065480E-20
O      -5.38416685904535811E-21 -2.51729890835217666E-20 -8.53330176634147703E-21
O      -3.00348113965403383E-20  1.02861695217582957E-20  6.26813455232146137E-21
O       1.39425813439458162E-20  1.15920308868252665E-20 -9.80400532542587670E-21
O       4.52028934061643853E-22 -1.18331129849914783E-20  9.08075903092724593E-21
O      -9.12093938062161406E-21  2.14663518242162871E-20 -1.92062071539080661E-20
O       1.03363949588762562E-20 -1.45854669390557092E-20 -1.43142495786187217E-20
U       2.29831600251786940E-20 -5.03258879921963513E-21 -6.34849525171019838E-21
U       1.57808323424631680E-20 -2.73226377921704718E-21 -2.33447831724280086E-20
U       7.43336469345814377E-21  8.19679133765114266E-21 -3.51176256328779309E-20
U      -8.83967693276103455E-22 -1.13911291383534259E-20 -3.70462824182076130E-20
O      -7.51498102877482964E-21 -1.63483797818961202E-20 -1.35257102158667425E-20
O      -1.55899756814149168E-20  1.41434830924176553E-20 -1.84026001600207006E-20
O       7.95570923948493241E-21 -2.35055045712054811E-21 -1.78400752642995469E-20
O      -1.28577119021978696E-21 -1.31389743500584491E-20  2.04919783441278552E-20
O       1.04870712702301378E-20  1.28677569896214617E-20 -3.29478867493820432E-21
O      -1.20541049083105037E-20 -1.60721398777473373E-20  8.23069350770576572E-21
O      -6.58957734987640863E-21 -8.43787343581735141E-22 -1.49069097366106542E-20
O       2.68806539455324217E-20  2.29027993257899555E-21  1.06477926690076115E-21
U       6.79047909834824926E-21 -9.84418567512024520E-22 -1.09290551168681887E-20
U       2.35858652705942173E-20 -5.26362580996225298E-21 -6.71011839895951301E-21
U       3.21442797554946741E-22 -5.42434720873972623E-21 -1.82418787612432281E-20
U       1.20541049083105015E-21  1.10194609036805189E-20 -3.03763443689424711E-20
O      -3.53587077310441382E-21 -1.57506970801923923E-20 -1.40631223930289190E-20
O      -6.18777385293272512E-21 -6.02705245415525187E-21 -2.57756943289372929E-20
O      -5.50470790812846323E-21  1.50274507856937600E-20 -1.97486418747820411E-20
O       1.97285516999348563E-20 -1.55196600694497730E-21  1.22550066567823444E-20
O       1.96080106508517534E-20  8.43787343581735141E-21 -1.55899756814149168E-20
O      -7.39318434376377414E-21 -8.03606993887366828E-22 -3.37514937432694057E-21
O       6.71011839895951301E-21 -1.54292542826374443E-20 -1.99972577885159445E-20
O       9.64328392664840269E-22 -5.86633105537777786E-21 -1.80309319253477958E-21
U      -1.51078114850824963E-20  1.52685328838599703E-21 -1.04468909205357697E-20
U      -1.41434830924176553E-20 -5.94669175476651412E-21  1.10495961659512946E-20
U       1.55397502442969563E-20  1.23755477058654502E-20 -2.41082098166210075E-20
U      -6.46401375708150730E-21  5.18326511057351598E-21  4.92611087252955892E-20
O      -1.96080106508517534E-20  1.18532031598386609E-21 -6.91102014743135514E-21
O       3.00147212216931505E-20  1.40631223930289190E-20 -1.29983431261281584E-20
O      -1.02660793469111109E-20 -1.24759985801013713E-20 -2.79052528627388141E-20
O      -1.45377527737936479E-20 -4.96227318725449054E-21  1.24559084052541865E-20
O       6.66993804926514563E-21  1.48667293869162853E-21  2.08937818410715379E-21
O       5.34398650935098923E-21 -1.70666035326829541E-20  3.53587077310441382E-21
O       8.88990236987899621E-21 -1.80811573624657526E-20 -1.19737442089217660E-20
O      -1.52283525341656022E-20  8.92003763214977343E-21 -2.51528989086745817E-20
U      -2.19886963702430742E-20 -7.03156119651445951E-21  1.01254481229808232E-20
U      -1.38521755571334860E-20  4.25911706760304458E-21  5.46452755843409436E-21
U      -1.57506970801923923E-20 -8.03606993887366852E-23 -4.82164196332420135E-22
U       2.04919783441278567E-21  2.56350631050070053E-20  1.76793538655220691E-21
O      -1.03050040606775309E-20  6.42885595109893463E-21 -9.48256252787092869E-21
O       2.42689312153984800E-20  1.27170806782675801E-20 -3.57680450435555186E-20
O      -3.39523954917412463E-21 -3.02156229701649926E-20 -2.33046028227336390E-20
O      -1.02861695217582957E-20 -1.09692354665625568E-20  2.97083460552735948E-20
O       4.66092056454672734E-21 -1.33398760985302913E-20 -6.93111032227853995E-21
O      -8.75931623337229942E-21  8.03606993887366828E-22  2.62779487001168983E-20
O       2.21795530312913254E-20 -6.60966752472359269E-21  1.10495961659512946E-20
O       1.92865678532968054E-21 -2.41082098166210067E-22 -4.54037951546362297E-21
U      -1.69962879207178087E-20  2.98138194732213083E-20 -1.04468909205357697E-20
U       1.15719407119780817E-20  5.38416685904535811E-21  5.42434720873972623E-21
U      -5.22344546026788485E-21  4.17875636821430758E-21 -1.89651250557418574E-20
U       1.12504979144231352E-21  8.83967693276103455E-22  2.71217360436986334E-20
O      -1.24157280555598184E-20  4.50019916576925409E-21  9.96472672420334920E-21
O       4.22697278784755023E-20  3.76891680133175030E-20 -2.47109150620365309E-20
O       1.61525005771360736E-20  2.12955853380152229E-21 -1.71168289698009146E-20
O      -1.80007966630770164E-20  1.28577119021978696E-21  2.79253430375859959E-20
O       8.67895553398356167E-21 -1.68154763470931514E-20  1.36412287212380530E-20
O      -6.44894612594611869E-21 -2.63583093995056345E-20  2.36260456202885870E-20
O       1.99294534484066984E-20 -1.17326621107555557E-20  7.55390574254124815E-21
O      -1.45854669390557092E-20  2.41082098166210067E-22 -7.27264329468067127E-21
U       2.16973888349589042E-21  2.13759460374039569E-20 -6.91102014743135514E-21
U      -6.50921665048767163E-21  1.40430322181817372E-20  1.29782529512809751E-20
U       2.37064063196773217E-21  1.89035988952723563E-20  6.26813455232146137E-21
U      -8.55841448490045729E-21  6.58957734987640863E-21 -2.74833591909479480E-20
O      -8.67895553398356167E-21 -3.29478867493820432E-21  2.02383398866821533E-20
O      -9.47251744044733628E-21 -1.92865678532968054E-21 -1.09893256414097417E-20
O      -3.91758409520091336E-22  2.44296526141759525E-20  1.60721398777473366E-21
O      -1.55899756814149168E-20 -2.16973888349589042E-21 -3.81713322096499295E-21
O      -6.99138084682009289E-21  2.90905731787226851E-20  6.02705245415525187E-21
O       1.84829608594094399E-20 -1.60721398777473370E-22 -2.73226377921704718E-21
O      -9.84418567512024482E-21  2.08937818410715379E-21 -7.73471731616590640E-22
O       3.15415745100791475E-21  1.20541049083105015E-21 -6.83065944804261889E-21
U       1.29933205824163630E-20  1.02058088223695595E-20  7.63426644192998590E-21
U       8.20181388136293812E-21 -2.28174160826894230E-20 -3.05370657677199406E-21
U       8.71913588367792979E-21 -2.64688053611651495E-20  2.65190307982831055E-21
U       8.03606993887366852E-23 -1.53488935832487050E-20  1.70364682704121783E-20
O      -2.63583093995056345E-20 -2.04517979944334885E-20  8.03606993887366828E-22
O      -1.35005974973077623E-20 -2.33046028227336367E-21 -3.19031976573284629E-20
O      -6.10741315354398812E-21  7.35300399406940602E-21 -1.20541049083105015E-21
O      -1.26969905034203968E-20  1.91358915419429230E-21  8.94012780699695674E-21
O      -2.71619163933929970E-20  1.50274507856937600E-20 -1.27371708531147649E-20
O       1.38220402948627103E-20 -1.22951870064767125E-20  7.31282364437503940E-21
O      -9.12093938062161406E-21  1.61525005771360736E-20  8.56845957232404970E-21
O       2.25009958288462704E-20  7.36304908149299842E-21  1.59515988286642314E-20
U      -8.35751273642861516E-21 -2.50725382092858455E-20  6.34849525171019838E-21
U      -1.57105167304980227E-20 -1.07130857372609587E-20 -1.12504979144231352E-21
U       1.96080106508517534E-20 -2.80257939118219215E-21  1.75186324667445988E-20
U       3.53587077310441382E-21 -1.20541049083105037E-20  1.28577119021978693E-20
O      -2.89298517799452043E-21 -4.25911706760304458E-21  7.75480749101309028E-21
O      -2.18480651463127865E-21 -8.67895553398356167E-21 -1.54694346323318109E-20
O       3.53587077310441382E-21  3.47158221359342467E-20 -3.37916740929637813E-20
O      -1.07031976043283608E-20  1.27371708531147649E-20  1.20541049083105037E-20
O      -7.39318434376377414E-21  7.19228259529193352E-21 -6.18777385293272512E-21
O       1.67150254728572303E-20 -7.05165137136164433E-21  1.92865678532968054E-21
O      -2.15969379607229839E-21 -1.21344656076992400E-20 -1.07482435432435318E-21
O       1.14513996628949777E-21 -9.16111973031598218E-21  6.91102014743135514E-21
U       5.62524895721156761E-22  9.89441111223820385E-21  4.87387641792688021E-20
U       5.06272406149041160E-21 -4.21893671790867571E-21  6.28571345531274741E-20
U       1.00350423361684945E-20  2.33849635221223752E-20  5.19130118051239005E-20
U      -5.36909922790997025E-21  1.07181082809727557E-20  3.54114444400180025E-20
O      -1.43845651905838670E-20 -2.05723390435165914E-20 -1.93468383778383568E-20
O       1.35608680218493167E-20  1.20942852580048719E-20  3.85731357065936108E-21
O       7.11192189590319727E-21  6.46903630079330275E-21 -5.62524895721156761E-22
O      -5.78597035598904086E-21  6.82061436061902648E-21 -1.94071089023799083E-20
O      -5.70560965660030461E-21  2.08937818410715379E-21  1.13308586138118730E-20
O       1.11299568653400308E-20 -2.97334587738325706E-21 -3.13406727616073069E-21
O      -5.86633105537777786E-21  1.23755477058654502E-20 -4.40376632650277059E-20
O      -1.01254481229808232E-20 -1.42841143163479460E-20  2.51127185589802134E-23
U      -1.77496694774872137E-20  9.92956891822077652E-21  5.57703253757832646E-20
U      -2.54140711816879783E-21  6.26813455232146137E-21  2.90403477416047246E-20
U       1.04468909205357697E-20 -1.80811573624657526E-20  2.96129177247494722E-20
U      -2.65993914976718463E-20 -1.34101917104954351E-21  3.40227111037063961E-20
O      -8.63877518428919392E-22 -1.37416795954739740E-20 -1.25362691046429227E-20
O      -8.03606993887366852E-23 -1.54292542826374443E-20 -1.28376217273506859E-20
O      -8.03606993887366828E-22 -1.04468909205357690E-21  1.83624198103263340E-20
O      -2.56764990906293185E-20 -1.05473417947716893E-22 -2.95727373750550966E-20
O      -3.37514937432694057E-21 -7.63426644192998515E-22 -8.96021798184414005E-21
O       1.18933835095330282E-20  9.80400532542587670E-21  2.33046028227336367E-21
O      -7.55390574254124815E-21  2.82869661848353105E-20 -9.56292322725966644E-21
O      -4.78146161362983322E-21 -1.36412287212380530E-20 -1.82820591109375985E-21
U      -6.99138084682009289E-21  1.95201161358953195E-20  3.75284466145400305E-20
U      -2.65190307982831055E-21 -1.13710389635062411E-20  1.90078166772921232E-20
U       9.24148042970471994E-21  2.10946835895433815E-20 -1.01656284726751913E-20
U       7.87534854009619616E-21  1.81062700810247351E-21  1.78199850894523590E-20
O      -1.01254481229808232E-20 -1.92865678532968024E-20  1.31791546997528173E-20
O       3.46153712616983256E-20 -7.95570923948493241E-21 -1.02459891720639276E-20
O      -1.53488935832487050E-20 -3.61623147249315054E-22  1.74181815925086778E-20
O      -1.27974413776563178E-20  1.18130228101442935E-20 -1.51881721844712356E-20
O      -7.95570923948493241E-21  5.70560965660030461E-21 -1.55799305939913259E-20
O       2.51528989086745817E-20 -1.86135469959161367E-20 -1.60721398777473366E-21
O      -5.82615070568340974E-21  1.73579110679671233E-20 -9.16111973031598218E-21
O      -2.63583093995056345E-20 -7.39318434376377414E-21  1.77145116715046425E-20
U       5.46452755843409436E-21 -4.54037951546362297E-21 -3.04968854180255740E-20
U      -7.15210224559756539E-21 -1.76793538655220691E-21  1.57406519927687984E-20
U      -1.23655026184418578E-20 -4.90200266271293835E-21  3.93767427004809808E-21
U       9.17116481773957459E-21 -3.93767427004809808E-21 -6.04714262900243593E-21
O      -1.83222394606319644E-20  3.05370657677199406E-21  5.92660157991933080E-21
O      -1.76994440403692532E-20 -3.57605112279878270E-21  2.57154238043957393E-21
O      -6.02705245415525187E-21 -1.04468909205357690E-21  8.89994745730258861E-21
O       4.24907198017945203E-20  9.18623244887496245E-21 -2.87691303811677341E-20
O       1.30184333009753433E-20 -1.31389743500584491E-20 -6.54939700018204051E-21
O       1.39024009942514465E-20 -1.63031768884899552E-20 -3.49569042341004584E-20
O      -8.03606993887366828E-22  3.03361640192481000E-21 -2.80565569920566675E-20
O      -3.89749392035372920E-21 -1.80811573624657541E-21 -2.27420779270124822E-20
U       1.41635732672648412E-21  6.42885595109893481E-22 -2.21795530312913254E-20
U       1.55045924383143851E-20 -1.27773512028091330E-20  1.76492186032512956E-20
U       5.18326511057351598E-21  1.35809581966964985E-20 -1.04067105708414016E-20
U      -2.02508962459616464E-20 -1.42238437918063945E-20  3.26465341266742785E-21
O      -1.31389743500584491E-20  7.07174154620882764E-21 -9.64328392664840269E-22
O      -1.05272516199245060E-20 -6.34849525171019838E-21  0.00000000000000000E+00
O      -3.21442797554946741E-22  4.74128126393546434E-21  4.66092056454672734E-21
O       1.54292542826374443E-20  2.77244412891141598E-20 -1.30184333009753433E-20
O      -5.82615070568340918E-22  3.69659217188188707E-21  2.06526997429053277E-20
O       1.70364682704121783E-20 -1.89651250557418574E-20 -1.59013733915462709E-20
O      -2.25009958288462704E-21  6.51926173791126328E-21  3.77695287127062407E-21
O      -9.64328392664840269E-22 -4.09839566882557133E-21 -4.17875636821430758E-21
U      -1.00049070738977173E-20 -3.57605112279878270E-21 -4.13857601851993946E-21
U      -1.60721398777473366E-21  2.16170281355701687E-20  4.03511161805694112E-20
U       2.26617172276237459E-20  3.21442797554946731E-21  2.18581102337363774E-20
U       1.15719407119780817E-20  7.83516819040182653E-21 -2.11800668326439132E-20
O      -2.58761452031732110E-20 -1.17326621107555557E-20 -2.08937818410715394E-20
O      -1.94472892520742779E-20 -5.14308476087914785E-21  1.37416795954739740E-20
O      -8.43787343581735141E-21 -1.98892730987123310E-21  7.63426644192998590E-21
O       4.82164196332420150E-20 -2.09942327153074582E-21 -6.83065944804261795E-22
O       1.54694346323318109E-20  2.04919783441278567E-21  2.08937818410715379E-21
O       2.38269473687604261E-20 -6.42885595109893481E-22 -2.20188316325138529E-20
O       5.30380615965662110E-21 -1.35608680218493167E-20  3.29478867493820432E-21
O       7.95570923948493241E-21  8.92003763214977343E-21  1.30787038255168947E-20
U      -5.70560965660030461E-21 -1.10094158162569265E-20 -2.39474884178435320E-20
U       4.41983846638051784E-21  1.45653767642085229E-22 -3.53486626436205518E-20
U       1.38521755571334860E-20  4.49015407834566243E-21 -3.02959836695537319E-20
U       8.60612865016251860E-21 -6.10741315354398812E-21 -1.93920412712445219E-20
O       1.05272516199245060E-20 -8.59859483459482542E-21  2.41082098166210075E-20
O       6.23799929005068566E-21  1.04468909205357690E-21 -2.08937818410715379E-21
O       2.70011949946155245E-20 -1.23353673561710806E-20 -2.00901748471841709E-20
O       3.01352622707762594E-21 -3.77695287127062407E-21  1.49269999114578420E-20
O      -7.73471731616590640E-22  1.36613188960852359E-21 -1.88044036569643849E-20
O      -5.84624088053059380E-21  6.58957734987640863E-21 -1.65543040740797578E-20
O       1.36613188960852359E-21  1.75989931661333351E-20  1.78601654391467287E-20
O       9.96472672420334920E-21 -8.13652081310958972E-21 -1.00450874235920854E-20
U      -5.30380615965662110E-21 -1.63935826753022853E-20 -4.32340562711403374E-20
U       1.45904894827675046E-20 -1.23052320939003060E-21 -5.14559603273504573E-20
U      -3.45551007371567757E-21  9.53278796498888922E-21 -2.04517979944334885E-20
U       5.94669175476651412E-21  3.40729365408243567E-20 -5.52479808297564730E-21
O       1.14513996628949777E-21 -1.32996957488359231E-20  1.85633215587981731E-20
O      -4.82164196332420135E-22 -2.48314561111196367E-20 -6.87083979773698701E-21
O       1.81615180618544919E-20 -2.13307431439977948E-20 -2.57154238043957393E-21
O      -2.02508962459616464E-20  2.57154238043957393E-21  7.23246294498630164E-21
O       1.71971896691896508E-20 -2.22197333809856951E-20 -8.75931623337229942E-21
O       1.26769003285732119E-20  1.47060079881388120E-20 -1.73177307182727537E-20
O       1.00852677732864536E-20  2.09741425404602757E-20  1.29380726015866055E-20
O       8.35751273642861516E-21 -1.14112193132006092E-20  5.46452755843409436E-21
U       2.27420779270124822E-20 -3.05370657677199406E-21 -5.08683227130703202E-20
U       1.09290551168681887E-20  8.23697168734551079E-22 -4.24505394521001567E-20
U      -5.06272406149041160E-21 -1.66246196860449002E-20 -4.80556982344645364E-20
U      -1.05272516199245060E-20 -4.01803496943683414E-22 -1.12655655455585246E-20
O      -2.41082098166210030E-21 -2.58786564750291132E-20  7.39318434376377414E-21
O       1.79606163133826497E-20  4.09839566882557133E-21  1.22951870064767125E-20
O       4.74128126393546434E-21 -1.63935826753022853E-20 -2.89298517799452066E-20
O      -3.80909715102611933E-20  2.95325570253607337E-21 -3.12603120622185729E-20
O       5.30380615965662110E-21 -2.85682286326958919E-20  3.53587077310441382E-21
O       3.09388692646636256E-21 -5.34398650935098923E-21 -1.33398760985302913E-20
O       3.17424762585509919E-21 -5.22344546026788448E-22  1.03665302211470320E-20
O      -1.60721398777473373E-20 -6.02705245415525187E-21  2.04919783441278552E-20
U      -9.32184112909345468E-21 -3.83220085210038081E-21 -3.41181394342305248E-20
U       1.84829608594094354E-21  7.99588958917929903E-21 -1.30987940003640810E-20
U       8.11643063826240491E-21 -2.45100133135646917E-21  1.50977663976589054E-20
U       6.73020857380669763E-22  3.37414486558458148E-20 -1.31791546997528173E-20
O      -1.23755477058654502E-20  1.44649258899726022E-21  2.53939810068407935E-20
O       1.60721398777473370E-22 -1.00450874235920854E-20 -5.46452755843409436E-21
O      -2.21808086672192766E-21  1.15618956245544908E-20 -4.29126134735853924E-20
O       5.86633105537777786E-21 -1.14513996628949789E-20  2.90905731787226851E-20
O      -2.88494910805564733E-20  8.83967693276103455E-22  1.62328612765248098E-20
O      -1.47989250468070414E-20  1.63935826753022853E-20  1.00011401661138700E-20
O      -9.80400532542587670E-21 -1.45452865893613425E-20  1.10897765156456627E-20
O       4.90200266271293835E-21  1.33800564482246564E-20  1.28577119021978693E-20
U       7.08178663363242061E-22  7.92557397721415519E-21 -8.32486620230194022E-21
U      -1.52183074467420083E-20  6.02705245415525074E-22  5.30380615965662110E-21
U      -2.35858652705942173E-20  1.44247455402782367E-20 -2.50122676847442941E-20
U      -1.01254481229808232E-20  2.24005449546103501E-21 -2.52332596080633180E-20
O      -3.14210334609960454E-20  4.50019916576925409E-21 -4.01803496943683414E-22
O      -3.41532972402130944E-21 -1.12504979144231352E-21 -1.63734925004550975E-20
O      -9.48256252787092869E-21  8.67895553398356167E-21 -3.43943793383793017E-20
O       1.42238437918063945E-20  2.33046028227336367E-21  3.38318544426581449E-20
O      -2.38558269951032522E-20 -9.56292322725966644E-21  1.37014992457796044E-20
O      -4.25911706760304458E-21  5.14308476087914785E-21  1.90856661048249633E-20
O       4.01803496943683433E-21 -4.66092056454672734E-21  1.55096149820261806E-20
O       3.20940543183767149E-21  2.16973888349589042E-21  2.17777495343476442E-20
U       1.36613188960852359E-21 -5.35403159677458164E-21 -7.87534854009619616E-21
U       1.08486944174794521E-21  1.07281533683963481E-20 -1.76793538655220713E-20
U      -6.91102014743135514E-21  1.12504979144231352E-21  2.26617172276237459E-20
U      -1.54292542826374443E-20  1.80208868379242012E-20 -1.17326621107555557E-20
O      -1.56301560311092864E-20 -1.81213377121601222E-20  1.45151513270905638E-20
O      -3.79704304611780889E-21 -2.63583093995056345E-20 -2.44196075267523586E-20
O      -3.40829816282479476E-20 -1.25362691046429227E-20 -1.83021492857847795E-20
O      -5.78597035598904086E-21 -1.16523014113668195E-20  3.07781478658861494E-20
O      -1.05473417947716908E-20 -1.19737442089217660E-20  1.19536540340745831E-21
O      -3.61623147249315082E-21  2.95727373750550966E-20  7.74476240358949787E-21
O       1.55096149820261806E-20 -3.89749392035372920E-21 -8.43787343581735141E-21
O      -6.91102014743135514E-21  7.68951442275974189E-21  2.07330604422940639E-20
U       2.37064063196773232E-20  3.29478867493820432E-21  1.39727166062165919E-20
U       1.25362691046429227E-20 -1.68757468716347028E-20  9.88436602481461295E-21
U      -4.08270021972620867E-21 -2.97334587738325751E-20 -2.47008699746129400E-20
U       1.02359440846403352E-20 -6.83065944804261889E-21 -5.62524895721156761E-21
O       1.08537169611912494E-20  1.17728424604499254E-20  2.68404735958380520E-20
O       7.02151610909086861E-21 -7.55390574254124815E-21 -3.59312777141888904E-20
O       2.37064063196773217E-21  1.10094158162569265E-20 -3.33898705960200970E-20
O      -2.93316552768888908E-20 -2.44296526141759525E-20 -2.41082098166210030E-21
O      -1.14714898377421622E-20 -1.11199117779164384E-20  5.46452755843409436E-21
O      -2.20991923319025892E-20  1.20541049083105015E-21  2.65190307982831055E-21
O      -5.30380615965662110E-21 -3.03361640192481000E-21 -1.10797314282220703E-20
O       1.49269999114578420E-20 -9.78391515057869188E-21 -1.04468909205357697E-20
U       1.91258464545193329E-20 -9.64328392664840119E-21  2.21393726815969558E-20
U      -3.72672743415266354E-21 -1.68757468716347028E-21  4.17875636821430758E-21
U       1.44247455402782367E-20 -3.37514937432694057E-21 -2.53638457445700148E-20
U      -6.14759350323835625E-21  1.34604171476133941E-20  2.25009958288462704E-21
O       1.10495961659512946E-20  2.45100133135646917E-21  1.28577119021978693E-20
O      -1.04468909205357690E-21  1.02861695217582957E-20 -2.48716364608140064E-20
O      -1.19310525873715001E-20  3.65641182218751970E-21 -7.42834214974634832E-21
O      -5.46452755843409436E-21 -2.26215368779293763E-20  3.23853618536608864E-20
O       1.29581627764337899E-21 -1.84327354222914763E-20 -1.20741950831576871E-20
O       9.64328392664840269E-22 -1.20541049083105034E-22  3.07781478658861494E-20
O      -1.71507311398555361E-20 -2.63984897492000011E-20 -1.98892730987123288E-20
O       3.95776444489528214E-21  7.89543871494337947E-21 -1.04067105708414016E-20
U       1.34202367979190260E-20 -2.49118168105083730E-20 -3.07480126036153766E-20
U      -6.14759350323835625E-21 -3.06174264671086769E-20  9.08075903092724593E-21
U       2.47510954117309005E-20 -2.65190307982831055E-21 -1.58712381292754982E-20
U       2.51528989086745817E-20  1.53890739329430747E-20 -1.01254481229808232E-20
O      -1.51881721844712356E-20 -1.23755477058654502E-20 -2.02910765956560123E-21
O      -1.25362691046429227E-20  5.66542930690593649E-21 -1.75186324667445988E-20
O      -2.23402744300688009E-20  7.95570923948493241E-21 -2.85016799285145984E-20
O      -1.50274507856937600E-20 -6.42885595109893463E-21  8.35751273642861516E-21
O      -3.10995906634410944E-20 -2.15366674361814324E-20  7.23246294498630164E-21
O       6.30831490201582950E-21  3.49569042341004645E-21  1.14513996628949777E-21
O      -1.36211385463908681E-20 -3.14411236358432272E-20 -1.38220402948627103E-20
O      -7.35300399406940602E-21  1.00450874235920854E-20 -9.52274287756529832E-21
U      -1.28577119021978696E-21 -1.92865678532968054E-21  1.83322845480555553E-20
U      -6.02705245415525187E-21  1.32595153991415528E-21  1.08486944174794525E-20
U      -2.80659742615162926E-20 -1.86939076953048729E-20  2.33272042694367200E-20
U      -4.73123617651187269E-21  4.50019916576925409E-21 -1.31791546997528173E-20
O      -1.14112193132006092E-20 -1.88044036569643849E-20  8.92003763214977343E-21
O      -1.01254481229808232E-20 -1.77998949146051772E-20 -1.89148996186238998E-20
O      -1.87089753264402593E-20  1.63132219759135491E-20 -3.44345596880736713E-20
O       1.09290551168681887E-20 -2.64386700988943708E-20  1.32595153991415550E-20
O       3.85731357065936108E-21 -1.21947361322407929E-20  1.36613188960852378E-20
O      -3.61623147249315082E-21 -1.04468909205357697E-20  1.83624198103263340E-20
O      -1.38220402948627103E-20 -5.30380615965662110E-21 -8.27715203703987891E-21
O      -3.02156229701649926E-20 -3.35505919947975650E-21 -5.22344546026788485E-21
U      -1.02309215409285397E-20  1.55096149820261806E-20  3.47660475730522072E-20
U       3.53587077310441382E-21 -8.83967693276103455E-22  1.70364682704121783E-20
U      -1.43042044911951308E-20  2.72623672676289181E-20  3.48413857287291480E-20
U      -9.40220182848219244E-21  1.52685328838599703E-21  1.67953861722459666E-20
O      -1.74784521170502292E-20 -1.52383976215891961E-20  1.66748451231628641E-21
O      -9.64328392664840119E-21 -1.19737442089217660E-20 -3.46756417862398831E-20
O      -4.11848584367275539E-21 -4.14862110594353186E-21 -1.54292542826374443E-20
O       1.92865678532968054E-21 -1.84427805097150702E-20  7.87534854009619616E-21
O       3.29478867493820432E-21 -1.84829608594094399E-20  1.22951870064767125E-20
O       3.41532972402130944E-21 -2.53136203074520573E-20  1.10897765156456627E-20
O      -6.06723280384962000E-21  7.42080833417865364E-21  3.34501411205616410E-21
O      -2.32242421233449027E-20 -1.47863686875275483E-20  8.92003763214977343E-21
U       7.19228259529193352E-21 -9.64328392664840119E-21  7.78293373579914751E-20
U       4.01803496943683426E-23 -2.62176781755753446E-21  2.44296526141759525E-20
U      -5.78597035598904086E-21  1.13308586138118730E-20  4.85328398870851615E-20
U       2.57154238043957393E-21 -4.50019916576925409E-21  1.13308586138118730E-20
O      -3.27068046512158314E-20 -1.52685328838599718E-20  4.05821531913120245E-21
O       6.75029874865388113E-21 -1.22550066567823444E-20 -2.58761452031732110E-20
O      -4.19482850809205513E-20 -1.32595153991415528E-21 -3.38318544426581449E-20
O       2.24206351294575372E-20  7.25255311983348646E-21  4.05821531913120245E-21
O      -1.37416795954739740E-20 -4.74128126393546434E-21  6.18777385293272512E-21
O       9.12093938062161406E-21 -1.28577119021978693E-20  5.34398650935098923E-21
O       5.38416685904535811E-21 -2.89298517799452043E-21 -1.87039527827284638E-20
O       6.02705245415525074E-22  4.21893671790867571E-21 -7.63426644192998590E-21
